<svg width="207" height="236" viewBox="0 0 207 236" fill="none" xmlns="http://www.w3.org/2000/svg">
<path fill-rule="evenodd" clip-rule="evenodd" d="M118.466 199.983C42.9757 198.091 3.41376 207.467 39.3587 224.179C58.5124 233.082 84.9393 233.88 98.4538 234.501C128.437 235.892 242.475 220.345 159.299 201.818" fill="#31384B"/>
<path fill-rule="evenodd" clip-rule="evenodd" d="M79.9845 192.492C73.4328 190.713 64.84 193.777 59.7303 198.613C53.0224 204.96 51.774 214.061 63.5789 216.229C84.3759 220.041 101.295 215.692 105.625 209.507C109.955 203.322 100.108 197.957 79.9845 192.492Z" fill="#DD72B8"/>
<path fill-rule="evenodd" clip-rule="evenodd" d="M138.607 191.736C147.75 187.648 175.282 213.299 158.407 217.097C137.736 221.75 117.296 214.93 112.966 208.752C108.636 202.567 119.315 200.364 138.607 191.736Z" fill="#DD72B8"/>
<path fill-rule="evenodd" clip-rule="evenodd" d="M95.7878 32.5338C83.6308 29.9236 76.5053 24.8873 61.4538 8.21345C46.403 -8.46113 1.52013 5.15418 2.0292 37.8799C2.62275 76.0979 31.4535 99.8767 51.3535 81.7159C71.2534 63.5551 107.944 35.144 95.7878 32.5338Z" fill="#DD72B8"/>
<path fill-rule="evenodd" clip-rule="evenodd" d="M85.5145 52.2592C74.3355 46.8057 68.4133 41.7159 53.3618 25.042C38.3109 8.3674 1.1162 4.40367 2.01604 42.6161C2.91588 80.8284 32.236 99.893 52.1359 81.7322C72.0359 63.5714 97.9305 58.3163 85.5145 52.2592Z" fill="#FBEEF6"/>
<path fill-rule="evenodd" clip-rule="evenodd" d="M21.4035 11.2697C33.1964 9.45686 46.9122 14.9117 54.8464 23.7019C69.8488 40.3214 75.5634 45.1795 86.3913 50.4617L85.5441 52.1985L86.3913 50.4617C88.0331 51.2626 89.4398 52.2243 90.1901 53.5143C90.5933 54.2077 90.7974 54.9812 90.746 55.7978C90.696 56.5919 90.4129 57.3005 90.0432 57.9069C89.3348 59.069 88.1471 60.1135 86.8379 61.0718C85.4913 62.0576 83.8189 63.0902 81.9547 64.1825C80.7289 64.9007 79.4062 65.6534 78.0085 66.4488C70.8194 70.5401 61.6471 75.7599 53.4841 83.2095C48.1861 88.0445 42.1748 90.4694 36.0968 90.6546C30.0327 90.8394 24.0447 88.7913 18.7692 84.9276C8.23042 77.2092 0.477648 62.2431 0.0165734 42.6632C-0.215779 32.7961 2.00664 25.3947 5.94905 20.1959C9.90532 14.9789 15.4384 12.1866 21.4035 11.2697ZM9.13625 22.6129C5.88738 26.8971 3.7979 33.3298 4.01546 42.569C4.45423 61.2015 11.8114 74.8738 21.1327 81.7006C25.7872 85.1095 30.9167 86.8106 35.975 86.6565C41.0195 86.5027 46.1357 84.5004 50.7877 80.2549C59.3142 72.4736 68.9399 67.0011 76.1212 62.9184C77.4884 62.1411 78.7671 61.4141 79.9326 60.7312C81.773 59.653 83.3003 58.7042 84.4753 57.8442C85.6878 56.9566 86.3437 56.2909 86.6278 55.8248C86.7168 55.6789 86.7434 55.5935 86.7511 55.5606C86.7474 55.5527 86.7415 55.5411 86.7323 55.5253C86.5999 55.2976 86.0998 54.7701 84.6376 54.0567L85.5144 52.2592L84.6376 54.0567C73.1075 48.432 66.9778 43.1104 51.8771 26.3822L51.8771 26.3821C44.7605 18.4977 32.3535 13.6334 22.0112 15.2232C16.9088 16.0076 12.3712 18.347 9.13625 22.6129Z" fill="#DD72B8"/>
<path fill-rule="evenodd" clip-rule="evenodd" d="M115.672 32.5338C127.829 29.9236 134.956 24.8873 150.006 8.21345C165.057 -8.46113 204.509 -0.316233 205.929 37.8799C207.296 74.6435 188.67 92.2105 160.107 81.7159C134.841 72.4336 103.516 35.144 115.672 32.5338Z" fill="#DD72B8"/>
<path fill-rule="evenodd" clip-rule="evenodd" d="M120.425 50.6105C132.581 48.0003 139.707 42.9641 154.758 26.2896C169.809 9.61568 197.768 9.86562 203.245 35.9574C211.097 73.3606 182.87 94.5616 160.349 82.6655C136.542 70.0902 108.268 53.2208 120.425 50.6105Z" fill="#FBEEF6"/>
<path fill-rule="evenodd" clip-rule="evenodd" d="M182.335 17.0697C173.5 15.9236 163.378 19.7253 156.243 27.6296C148.701 35.9846 143.034 41.5519 137.662 45.3564C132.225 49.2058 127.145 51.2132 120.845 52.566C119.967 52.7544 119.627 52.9708 119.515 53.0606C119.532 53.1755 119.604 53.438 119.892 53.9077C120.968 55.6658 123.785 58.2047 128.066 61.2761C136.472 67.3061 149.388 74.6137 161.283 80.8971C171.73 86.4152 183.493 84.2894 191.806 76.3522C200.113 68.4201 205.097 54.5125 201.288 36.3683C198.716 24.1179 191.01 18.1953 182.335 17.0697ZM119.511 52.9895C119.511 52.9895 119.511 52.9918 119.51 52.996C119.51 52.9916 119.511 52.9894 119.511 52.9895ZM182.849 13.103C193.285 14.4569 202.297 21.7051 205.202 35.5465C209.245 54.8055 204.041 70.2 194.568 79.2452C185.1 88.2853 171.489 90.812 159.415 84.434C147.504 78.1421 134.379 70.7273 125.735 64.5262C121.491 61.482 118.031 58.5282 116.481 55.9961C115.716 54.748 115.081 53.0449 115.861 51.3747C116.619 49.7548 118.325 49.0157 120.005 48.6551C125.861 47.3977 130.421 45.5818 135.35 42.092C140.342 38.5571 145.764 33.2691 153.273 24.9495L153.273 24.9494C161.19 16.18 172.573 11.7697 182.849 13.103Z" fill="#DD72B8"/>
<path fill-rule="evenodd" clip-rule="evenodd" d="M103.26 17.5897C80.6781 18.7455 55.096 55.0706 57.9631 75.195C60.8295 95.3193 88.5492 110.761 106.191 110.544C123.834 110.327 159.641 95.2218 153.718 70.6939C143.016 26.3807 116.103 16.9324 103.26 17.5897Z" fill="#DD72B8"/>
<path fill-rule="evenodd" clip-rule="evenodd" d="M136.333 70.8754C135.556 70.8577 134.94 70.211 134.958 69.4315C134.976 68.6528 135.62 68.0343 136.398 68.0519C140.279 68.1409 156.417 64.8895 175.016 68.0335C175.782 68.1628 176.3 68.8921 176.17 69.6603C176.041 70.4292 175.314 70.9474 174.548 70.8182C156.143 67.7074 140.174 70.9636 136.333 70.8754Z" fill="#B54790"/>
<path fill-rule="evenodd" clip-rule="evenodd" d="M138.074 81.0501C137.383 80.6943 137.11 79.8421 137.465 79.1488C137.819 78.4554 138.669 78.1815 139.361 78.5373C141.986 79.8894 154.247 82.9084 165.819 91.3421C166.448 91.8003 166.588 92.6843 166.131 93.3148C165.674 93.9453 164.792 94.0851 164.163 93.6268C152.762 85.3167 140.661 82.3817 138.074 81.0501Z" fill="#B54790"/>
<path fill-rule="evenodd" clip-rule="evenodd" d="M137.808 76.2123C137.031 76.1947 136.415 75.5479 136.432 74.7684C136.45 73.9897 137.095 73.3712 137.872 73.3889C141.784 73.4785 162.67 74.354 176.672 80.1167C177.391 80.4126 177.735 81.2379 177.44 81.9588C177.145 82.6797 176.322 83.0249 175.602 82.7291C161.966 77.1175 141.618 76.2999 137.808 76.2123Z" fill="#B54790"/>
<path fill-rule="evenodd" clip-rule="evenodd" d="M73.7757 68.3611C74.5531 68.3435 75.198 68.9613 75.2156 69.7408C75.2332 70.5195 74.6171 71.167 73.8398 71.1846C69.9996 71.2722 54.03 68.0159 35.6255 71.1267C34.8594 71.2566 34.1321 70.7377 34.0033 69.9695C33.8737 69.2006 34.3912 68.4713 35.1573 68.3421C53.7568 65.1981 69.8947 68.4501 73.7757 68.3611Z" fill="#B54790"/>
<path fill-rule="evenodd" clip-rule="evenodd" d="M70.8127 78.8465C71.5042 78.4907 72.354 78.7646 72.7089 79.458C73.0637 80.1513 72.7905 81.0028 72.0991 81.3586C69.5123 82.6902 57.4116 85.626 46.0101 93.9354C45.3814 94.3936 44.4998 94.2538 44.0429 93.6233C43.5859 92.9928 43.7253 92.1095 44.3541 91.6513C55.926 83.2176 68.1871 80.1979 70.8127 78.8465Z" fill="#B54790"/>
<path fill-rule="evenodd" clip-rule="evenodd" d="M72.3011 73.6981C73.0784 73.6804 73.7234 74.2982 73.741 75.0777C73.7586 75.8564 73.1425 76.5039 72.3652 76.5215C68.5553 76.6084 48.2075 77.426 34.5705 83.0376C33.8517 83.3334 33.0286 82.9889 32.7335 82.2673C32.4385 81.5464 32.7828 80.7211 33.5017 80.4252C47.5034 74.6632 68.3891 73.787 72.3011 73.6981Z" fill="#B54790"/>
<path fill-rule="evenodd" clip-rule="evenodd" d="M114.153 77.0836C119.143 71.6202 116.941 69.1788 106.28 69.4061C98.8146 69.5657 92.3052 72.1674 98.1232 77.0709C103.396 81.5154 107.807 84.031 114.153 77.0836Z" fill="#973B78"/>
<path fill-rule="evenodd" clip-rule="evenodd" d="M105.776 87.7985C120.827 87.4003 131.387 88.1918 136.707 99.2293C141.987 110.185 151.025 116.246 153.525 131.034C156.349 147.745 149.714 148.421 150.247 153.052C153.48 181.167 158.673 211.47 105.059 210.468C52.7533 209.493 66.6762 163.198 64.8856 153.638C64.1858 149.903 56.4914 141.297 60.8561 128.274C63.2381 121.167 73.3693 105.926 78.0727 99.2978C84.6483 90.031 86.6177 88.3055 105.776 87.7985Z" fill="#DD72B8"/>
<path fill-rule="evenodd" clip-rule="evenodd" d="M126.303 57.0109C126.851 57.6265 127.441 58.2217 127.638 59.088C127.789 59.7546 127.633 60.6067 126.608 61.4441C125.85 62.0626 125.357 62.1996 124.397 62.2031C123.614 62.2059 122.713 62.2758 121.984 61.9404C120.897 61.4413 120.462 60.7734 120.326 60.1612C120.183 59.5075 120.302 58.8346 120.49 58.0607C120.754 56.9657 122.456 56.362 123.393 56.2095C123.914 56.1248 124.432 56.201 124.592 56.2363C124.986 56.3239 126.11 56.7941 126.303 57.0109Z" fill="#60254C"/>
<path fill-rule="evenodd" clip-rule="evenodd" d="M89.3342 57.7317C90.0383 58.1292 90.2516 58.4335 90.6593 59.6903C90.8663 60.3307 90.848 60.8905 90.6966 61.3721C90.4755 62.0739 89.951 62.6373 89.223 63.015C88.5893 63.3441 86.6114 63.7168 86.422 63.7535C85.7595 63.882 84.5266 63.1308 84.4484 63.0864C83.6338 62.6197 83.2642 62.0336 83.129 61.4624C82.9896 60.8729 83.1022 60.2495 83.4289 59.6592C83.8993 58.8092 84.8597 58.0226 85.6581 57.635C86.2601 57.3427 86.8072 57.3766 87.1452 57.3533C87.7218 57.3137 88.7385 57.3956 89.3342 57.7317Z" fill="#60254C"/>
<path fill-rule="evenodd" clip-rule="evenodd" d="M68.3621 196.008C67.9467 195.344 68.1424 194.476 68.7994 194.059C69.4556 193.643 70.3266 193.833 70.742 194.49C72.7163 197.618 76.2382 201.204 82.7743 202.503C83.5369 202.659 84.0325 203.4 83.8812 204.17C83.7291 204.932 82.9877 205.426 82.2251 205.278C74.6842 203.774 70.6399 199.609 68.3621 196.008Z" fill="#B54790"/>
<path fill-rule="evenodd" clip-rule="evenodd" d="M146.012 195.267C146.451 194.624 147.328 194.455 147.97 194.899C148.611 195.337 148.776 196.213 148.337 196.862C145.767 200.625 143.211 203.026 135.979 205.652C135.248 205.914 134.44 205.532 134.175 204.805C133.911 204.071 134.289 203.259 135.02 202.991C141.429 200.668 143.735 198.606 146.012 195.267Z" fill="#B54790"/>
<path fill-rule="evenodd" clip-rule="evenodd" d="M97.2404 91.2037C96.5306 90.5386 96.4933 89.4202 97.1566 88.7093C97.8199 87.9976 98.9352 87.9595 99.6449 88.6253C99.8399 88.8081 100.181 88.9387 100.595 89.0806C101.533 89.4033 102.78 89.6328 104.147 89.7429C106.248 89.9124 108.629 89.798 110.645 89.231C111.806 88.9048 112.843 88.4403 113.559 87.7357C114.253 87.0536 115.368 87.0642 116.048 87.7597C116.729 88.4544 116.719 89.5735 116.025 90.2555C113.461 92.7789 108.201 93.6113 103.865 93.2618C100.8 93.0147 98.236 92.1371 97.2404 91.2037Z" fill="#60254C"/>
<path fill-rule="evenodd" clip-rule="evenodd" d="M78.5636 104.661C77.8969 104.261 77.6793 103.393 78.0778 102.724C78.477 102.055 79.3424 101.837 80.0099 102.237C84.7808 105.099 91.5747 105.344 91.5747 105.344C92.3513 105.375 92.9575 106.031 92.928 106.81C92.8977 107.589 92.2429 108.197 91.4663 108.166C91.4663 108.166 83.8902 107.856 78.5636 104.661Z" fill="#B54790"/>
<path fill-rule="evenodd" clip-rule="evenodd" d="M133.823 101.962C134.463 101.518 135.341 101.678 135.783 102.319C136.225 102.959 136.065 103.84 135.427 104.283C132.455 106.346 129.461 107.441 125.796 107.712C125.021 107.769 124.346 107.184 124.289 106.407C124.231 105.63 124.814 104.952 125.59 104.895C128.724 104.664 131.282 103.725 133.823 101.962Z" fill="#B54790"/>
<path fill-rule="evenodd" clip-rule="evenodd" d="M75.8569 180.348L94.241 133.131C97.1306 134.313 100.281 135.524 103.693 136.831L85.3095 184.048C81.5601 183.469 78.3748 182.346 75.8569 180.348Z" fill="#33A26D"/>
<path fill-rule="evenodd" clip-rule="evenodd" d="M94.249 133.11C94.249 133.11 100.552 126.317 102.828 123.864C102.958 123.723 103.162 123.677 103.34 123.747C103.519 123.817 103.637 123.99 103.638 124.183C103.649 127.542 103.679 136.868 103.679 136.868C100.289 136.342 97.0605 135.251 94.249 133.11Z" fill="#ABE3C8"/>
<path fill-rule="evenodd" clip-rule="evenodd" d="M85.3581 183.927L84.4386 186.293C83.6148 188.411 80.828 189.3 78.2193 188.277C75.6113 187.253 74.1623 184.711 74.9868 182.593L75.9056 180.228C78.4228 182.226 81.6278 183.377 85.3581 183.927Z" fill="#ABE3C8"/>
<path fill-rule="evenodd" clip-rule="evenodd" d="M68.1431 157.359C73.2443 161.666 83.5593 165.126 90.8855 164.645C101.984 163.925 104.702 159.294 96.074 153.885C86.5989 147.95 83.8086 143.418 80.6373 137.912" fill="#DD72B8"/>
<path fill-rule="evenodd" clip-rule="evenodd" d="M67.2361 158.439C66.6411 157.938 66.5651 157.041 67.0657 156.448C67.5663 155.848 68.4556 155.778 69.0498 156.279C73.9264 160.395 83.7902 163.692 90.7945 163.24C93.8968 163.036 96.3013 162.534 97.9228 161.751C98.7466 161.355 99.3451 160.925 99.6253 160.374C99.9077 159.823 99.7338 159.209 99.2846 158.517C98.5812 157.437 97.261 156.293 95.3275 155.086C85.5617 148.966 82.6861 144.292 79.4177 138.618C79.029 137.943 79.26 137.079 79.9331 136.689C80.6055 136.299 81.468 136.531 81.8567 137.206C84.9301 142.542 87.636 146.935 96.8202 152.685C99.7282 154.507 101.437 156.307 102.14 157.882C102.757 159.258 102.714 160.529 102.129 161.673C101.619 162.662 100.638 163.579 99.1395 164.3C97.28 165.196 94.534 165.825 90.9762 166.058C83.3283 166.552 72.5612 162.93 67.2361 158.439Z" fill="#B54790"/>
<path fill-rule="evenodd" clip-rule="evenodd" d="M147.396 155.269C141.621 160.289 132.997 163.876 125.671 163.396C114.572 162.676 111.812 158.305 121.101 154.147C133.889 148.416 135.518 141.13 138.69 135.624" fill="#DD72B8"/>
<path fill-rule="evenodd" clip-rule="evenodd" d="M146.473 154.203C147.061 153.688 147.951 153.758 148.46 154.344C148.969 154.93 148.906 155.827 148.319 156.335C142.277 161.588 133.243 165.309 125.58 164.808C121.276 164.525 118.15 163.685 116.36 162.584C114.695 161.553 114.007 160.24 114.095 158.898C114.152 158.037 114.547 157.098 115.409 156.166C116.394 155.093 118.069 153.956 120.527 152.855C132.881 147.321 134.406 140.237 137.47 134.918C137.859 134.243 138.721 134.012 139.394 134.401C140.067 134.791 140.298 135.656 139.909 136.33C136.63 142.023 134.898 149.508 121.676 155.432C119.981 156.194 118.718 156.943 117.876 157.691C117.31 158.192 116.936 158.63 116.905 159.082C116.877 159.527 117.284 159.837 117.838 160.176C119.371 161.122 122.073 161.751 125.762 161.991C132.75 162.443 140.964 158.99 146.473 154.203Z" fill="#B54790"/>
</svg>
