<svg width="295" height="476" viewBox="0 0 295 476" fill="none" xmlns="http://www.w3.org/2000/svg">
<path fill-rule="evenodd" clip-rule="evenodd" d="M92.9336 117.518C78.076 160.942 75.8835 162.285 60.9033 204.381C45.9303 246.475 27.5386 279.242 75.4146 337.233C106.168 374.486 109.659 135.898 108.801 121.859C107.943 107.818 95.9412 108.74 92.9336 117.518Z" fill="#6B85D9"/>
<path fill-rule="evenodd" clip-rule="evenodd" d="M151.426 424.095C121.61 425.083 82.8721 423.294 54.1666 430.023C25.5405 436.73 -29.245 445.551 22.4248 457.934C54.2532 465.564 74.0656 475.445 107.445 474.897C145.887 474.262 179.692 475.632 205.692 474.089C217.716 473.375 244.12 467.8 269.58 461.013C346.623 440.502 220.99 420.893 165.757 424.138" fill="#F6F6F7"/>
<path fill-rule="evenodd" clip-rule="evenodd" d="M84.1849 419.161C83.3987 418.354 78.2636 423.46 77.5784 424.008C73.8856 426.986 57.1167 442.427 63.817 447.469C81.6966 460.912 110.135 459.347 130.496 457.407C144.625 456.066 158.033 448.536 146.616 433.795" fill="#F5C23F"/>
<path fill-rule="evenodd" clip-rule="evenodd" d="M236.721 419.183C237.5 418.382 242.642 423.489 243.32 424.037C247.013 427.015 263.789 442.456 257.089 447.498C239.209 460.941 210.763 459.376 190.402 457.436C176.273 456.094 162.865 448.565 174.283 433.824" fill="#F5C23F"/>
<path fill-rule="evenodd" clip-rule="evenodd" d="M136.69 4.61246C148.389 0.717934 161.371 -2.78569 185.273 3.25731C201.292 7.30617 215.818 18.4077 225.115 45.8908C245.014 104.705 264.603 276.243 261.494 335.954C256.806 425.984 228.389 439.031 159.575 437.148C133.106 436.427 72.4999 440.827 66.1891 367.026C62.6261 325.404 64.5807 283.497 73.9135 238.498C81.8472 200.214 86.8959 162.428 88.3384 139.339C89.9756 112.969 96.366 60.8956 98.0609 45.4545C100.758 20.7682 119.597 10.2992 136.69 4.61246Z" fill="#6B85D9"/>
<path fill-rule="evenodd" clip-rule="evenodd" d="M144.942 65.8207C145.389 66.1488 145.685 66.6789 145.685 67.2775C145.685 68.1206 145.245 68.5749 144.776 68.8454C144.567 68.9637 143.672 69.4599 142.691 68.6471C142.439 68.4423 141.148 66.9941 139.98 66.0587C138.285 64.705 136.395 64.79 134.26 65.0367V65.0374C134.123 65.0526 134.015 65.1637 133.9 65.2682C133.597 65.5307 133.33 65.8863 133.084 66.2707C132.342 67.4369 131.757 69.2211 131.62 69.6733C131.606 70.3369 131.231 70.9694 130.589 71.2737C129.796 71.6509 129.154 71.4619 128.634 71.0184C128.469 70.8763 127.855 70.3188 128.021 69.2255C128.144 68.4661 129.146 65.3273 130.712 63.406C131.613 62.2961 132.717 61.585 133.849 61.4545C137.001 61.0903 139.734 61.2446 142.23 63.243C143.297 64.0984 144.675 65.5416 144.942 65.8207ZM130.74 68.0997C130.272 67.7917 129.709 67.6987 129.038 68.0174C129.608 67.7484 130.243 67.8004 130.74 68.0997ZM143.55 65.504C143.175 65.5661 142.879 65.7384 142.641 65.9678C142.886 65.7334 143.204 65.5682 143.55 65.504ZM142.41 66.2368C142.223 66.4885 142.078 66.8224 142.078 67.2775C142.078 66.8902 142.201 66.531 142.41 66.2368Z" fill="#21305E"/>
<path fill-rule="evenodd" clip-rule="evenodd" d="M195.4 67.3583C195.443 68.3528 194.678 69.1981 193.683 69.2457C192.688 69.2933 191.844 68.5252 191.801 67.5306C191.692 65.3338 189.817 63.546 187.855 62.9077C186.839 62.5774 185.771 62.5413 184.956 63.114C184.401 63.4998 184.004 64.1496 183.751 65.0583C183.492 66.019 182.504 66.5866 181.537 66.3255C180.578 66.0652 180.016 65.0735 180.275 64.1129C180.787 62.2276 181.739 60.9597 182.886 60.1599C184.61 58.9533 186.831 58.7838 188.966 59.4784C192.255 60.5472 195.227 63.6816 195.4 67.3583Z" fill="#21305E"/>
<path fill-rule="evenodd" clip-rule="evenodd" d="M165.598 138.828C187.813 142.937 214.217 119.349 229.998 156.804C238.184 176.223 242.533 199.381 251.722 271.45C256.727 310.69 263.42 353.134 252.804 394.726C241.531 438.872 208.808 438.591 159.634 438.894C104.25 439.233 63.7877 423.784 65.2519 353.545C66.5862 289.963 75.0608 251.388 82.0352 221.01C92.4211 175.783 104.019 147.436 112.126 141.219C128.981 128.292 135.645 133.288 165.598 138.828Z" fill="#EDF0FA"/>
<path fill-rule="evenodd" clip-rule="evenodd" d="M165.858 137.41C174.585 139.024 183.968 136.233 193.085 134.721C200.319 133.519 207.394 133.101 213.893 135.852C220.398 138.608 226.399 144.536 231.332 156.244C239.54 175.728 243.932 198.958 253.15 271.268C258.177 310.678 264.863 353.309 254.196 395.083C247.257 422.263 232.385 433.009 210.712 437.343C196.547 440.17 179.424 440.214 159.648 440.336C125.923 440.545 97.6933 434.841 80.7946 414.964C69.5071 401.694 63.2179 382.067 63.8093 353.515C65.1436 289.792 73.6399 251.133 80.6287 220.687C87.9349 188.87 95.8542 165.37 102.735 151.988C105.8 146.025 108.707 142.024 111.245 140.075C121.768 132.007 128.483 130.675 138.891 132.125C145.577 133.057 153.849 135.189 165.858 137.41ZM165.339 140.246C153.38 138.035 145.151 135.91 138.494 134.982C128.887 133.644 122.713 134.92 113.005 142.364C109.875 144.766 106.262 150.628 102.345 159.546C96.2797 173.336 89.6443 194.31 83.4416 221.333C76.4816 251.644 68.0213 290.133 66.6942 353.575C66.1172 381.213 72.0676 400.248 82.9944 413.096C99.3954 432.388 126.889 437.653 159.626 437.451C179.194 437.329 196.136 437.314 210.142 434.516C230.719 430.398 244.819 420.171 251.404 394.369C261.978 352.959 255.27 310.7 250.286 271.633C241.134 199.805 236.821 176.718 228.671 157.364C224.134 146.6 218.747 141.042 212.767 138.508C206.767 135.97 200.24 136.458 193.554 137.566C184.113 139.134 174.383 141.919 165.339 140.246Z" fill="#6B85D9"/>
<path fill-rule="evenodd" clip-rule="evenodd" d="M88.9237 147.65C88.9237 146.853 89.5657 146.204 90.3662 146.2C91.1596 146.196 91.8087 146.839 91.8087 147.635C91.8953 164.332 81.0622 209.114 79.562 217.525C78.0691 225.887 66.8537 272.689 65.0867 311.903C65.0506 312.698 64.3727 313.315 63.5794 313.279C62.786 313.243 62.1656 312.568 62.2017 311.773C63.9832 272.404 75.2274 225.414 76.7204 217.018C78.2134 208.67 89.0103 164.224 88.9237 147.65Z" fill="#3F5AB2"/>
<path fill-rule="evenodd" clip-rule="evenodd" d="M146.536 89.7028C143.68 92.4016 143.305 94.8032 155.205 102.236C167.098 109.669 167.134 115.186 174.015 107.26C180.896 99.3353 186.11 89.5701 182.886 87.2565C179.655 84.9443 167.632 69.7571 146.536 89.7028Z" fill="#F5C23F"/>
<path fill-rule="evenodd" clip-rule="evenodd" d="M149.976 93.2006C147.3 90.2313 142.453 92.4613 154.346 99.8941C166.247 107.327 167.942 111.405 174.823 103.48C181.703 95.5539 183.932 89.4856 182.994 88.9916C179.438 87.1064 177.606 101.955 168.757 102.182C164.069 102.301 154.238 97.9339 149.976 93.2006Z" fill="#DD8F46"/>
<path fill-rule="evenodd" clip-rule="evenodd" d="M200.558 206.817C199.266 207.432 198.61 208.882 198.992 210.256C203.882 227.826 231.153 325.593 237.593 347.398C238.055 348.891 239.577 349.783 241.106 349.453C247.611 348.076 256.382 346.034 260.334 344.009C261.178 343.406 261.56 342.338 261.286 341.335C257.247 326.571 228.708 223.008 222.837 202.854C222.382 201.404 220.897 200.539 219.411 200.865C211.658 202.553 205.491 204.549 200.558 206.817Z" fill="#DD8F46"/>
<mask id="mask0_530_7786" style="mask-type:luminance" maskUnits="userSpaceOnUse" x="198" y="200" width="64" height="150">
<path d="M200.557 206.817C199.266 207.432 198.609 208.881 198.991 210.256C203.882 227.826 231.152 325.592 237.592 347.398C238.054 348.891 239.576 349.783 241.105 349.453C247.61 348.075 256.381 346.034 260.333 344.009C261.177 343.406 261.559 342.337 261.285 341.335C257.246 326.57 228.707 223.008 222.836 202.854C222.381 201.404 220.896 200.539 219.41 200.865C211.657 202.553 205.49 204.548 200.557 206.817Z" fill="white"/>
</mask>
<g mask="url(#mask0_530_7786)">
<mask id="mask1_530_7786" style="mask-type:luminance" maskUnits="userSpaceOnUse" x="198" y="200" width="68" height="163">
<path d="M200.556 206.817C199.265 207.432 198.608 208.881 198.991 210.256C203.881 227.826 234.678 338.296 241.118 360.102C241.58 361.595 243.102 362.487 244.631 362.157C252.139 360.567 262.655 358.094 265.316 355.783C265.316 355.783 229.16 224.566 222.835 202.854C222.38 201.404 220.895 200.538 219.409 200.864C211.656 202.553 205.489 204.548 200.556 206.817Z" fill="white"/>
</mask>
<g mask="url(#mask1_530_7786)">
<path fill-rule="evenodd" clip-rule="evenodd" d="M226.854 212.288C227.387 212.123 227.95 212.422 228.116 212.954C228.282 213.486 227.979 214.053 227.452 214.217L220.543 216.354C220.009 216.519 219.439 216.221 219.28 215.688C219.115 215.155 219.41 214.59 219.944 214.425L226.854 212.288Z" fill="#7E5228"/>
<path fill-rule="evenodd" clip-rule="evenodd" d="M224.755 205.741C225.289 205.576 225.859 205.875 226.025 206.408C226.183 206.94 225.888 207.505 225.354 207.671L218.444 209.808C217.911 209.972 217.348 209.673 217.182 209.141C217.016 208.609 217.319 208.043 217.846 207.878L224.755 205.741Z" fill="#7E5228"/>
<path fill-rule="evenodd" clip-rule="evenodd" d="M228.974 219.302C229.508 219.137 230.07 219.436 230.236 219.968C230.402 220.5 230.107 221.066 229.573 221.231L222.663 223.371C222.13 223.535 221.567 223.236 221.401 222.704C221.235 222.172 221.531 221.606 222.065 221.441L228.974 219.302Z" fill="#7E5228"/>
<path fill-rule="evenodd" clip-rule="evenodd" d="M234.672 239.607C235.199 239.442 235.768 239.74 235.934 240.273C236.1 240.805 235.797 241.371 235.271 241.536L228.354 243.675C227.827 243.84 227.258 243.541 227.092 243.009C226.926 242.477 227.229 241.911 227.763 241.746L234.672 239.607Z" fill="#7E5228"/>
<path fill-rule="evenodd" clip-rule="evenodd" d="M231.103 226.308C231.63 226.144 232.2 226.442 232.365 226.974C232.524 227.507 232.228 228.073 231.695 228.237L224.785 230.374C224.251 230.539 223.689 230.241 223.523 229.708C223.357 229.175 223.66 228.609 224.187 228.445L231.103 226.308Z" fill="#7E5228"/>
<path fill-rule="evenodd" clip-rule="evenodd" d="M236.793 246.613C237.327 246.448 237.889 246.746 238.055 247.279C238.221 247.812 237.925 248.377 237.392 248.542L230.482 250.679C229.948 250.843 229.379 250.545 229.22 250.013C229.054 249.48 229.35 248.914 229.883 248.75L236.793 246.613Z" fill="#7E5228"/>
<path fill-rule="evenodd" clip-rule="evenodd" d="M232.972 233.158C233.505 232.994 234.068 233.292 234.234 233.824C234.4 234.357 234.097 234.923 233.57 235.087L226.654 237.224C226.127 237.389 225.557 237.091 225.391 236.559C225.233 236.026 225.529 235.46 226.062 235.295L232.972 233.158Z" fill="#7E5228"/>
<path fill-rule="evenodd" clip-rule="evenodd" d="M238.811 253.938C239.078 253.854 239.366 254.005 239.453 254.276C239.532 254.546 239.381 254.834 239.114 254.918L232.204 257.055C231.93 257.138 231.642 256.987 231.562 256.716C231.476 256.446 231.627 256.158 231.901 256.075L238.811 253.938Z" fill="#7E5228"/>
<path fill-rule="evenodd" clip-rule="evenodd" d="M257.5 322.744C258.027 322.579 258.596 322.877 258.762 323.41C258.928 323.942 258.625 324.508 258.092 324.673L251.182 326.81C250.656 326.974 250.086 326.676 249.92 326.143C249.754 325.611 250.057 325.045 250.591 324.881L257.5 322.744Z" fill="#7E5228"/>
<path fill-rule="evenodd" clip-rule="evenodd" d="M251.563 303.003C251.837 302.92 252.126 303.072 252.212 303.342C252.292 303.612 252.14 303.9 251.866 303.984L244.964 306.12C244.69 306.204 244.401 306.053 244.322 305.782C244.235 305.512 244.387 305.224 244.654 305.141L251.563 303.003Z" fill="#7E5228"/>
<path fill-rule="evenodd" clip-rule="evenodd" d="M259.62 329.76C260.154 329.595 260.716 329.894 260.882 330.426C261.048 330.958 260.745 331.525 260.219 331.689L253.302 333.827C252.776 333.991 252.206 333.692 252.04 333.16C251.881 332.628 252.177 332.062 252.711 331.897L259.62 329.76Z" fill="#7E5228"/>
<path fill-rule="evenodd" clip-rule="evenodd" d="M253.54 309.546C254.074 309.38 254.644 309.679 254.802 310.211C254.968 310.744 254.672 311.31 254.139 311.475L247.229 313.612C246.695 313.776 246.133 313.478 245.967 312.945C245.801 312.413 246.097 311.847 246.631 311.682L253.54 309.546Z" fill="#7E5228"/>
<path fill-rule="evenodd" clip-rule="evenodd" d="M261.74 336.764C262.274 336.599 262.837 336.897 263.002 337.43C263.168 337.962 262.872 338.528 262.339 338.693L255.429 340.83C254.896 340.994 254.326 340.696 254.167 340.164C254.001 339.631 254.297 339.065 254.831 338.901L261.74 336.764Z" fill="#7E5228"/>
<path fill-rule="evenodd" clip-rule="evenodd" d="M255.666 316.549C256.193 316.385 256.763 316.683 256.928 317.216C257.094 317.748 256.791 318.314 256.258 318.478L249.348 320.615C248.814 320.78 248.252 320.482 248.086 319.949C247.92 319.417 248.223 318.851 248.75 318.686L255.666 316.549Z" fill="#7E5228"/>
<path fill-rule="evenodd" clip-rule="evenodd" d="M263.761 344.089C264.028 344.005 264.316 344.156 264.402 344.427C264.482 344.697 264.33 344.985 264.064 345.069L257.154 347.208C256.88 347.291 256.591 347.14 256.512 346.87C256.426 346.599 256.577 346.311 256.851 346.228L263.761 344.089Z" fill="#7E5228"/>
</g>
</g>
<path fill-rule="evenodd" clip-rule="evenodd" d="M189.277 248.522C204.084 265.793 233.965 297.217 248.339 313.42C249.789 315.108 252.154 315.678 254.217 314.831C256.893 313.775 258.025 312.041 258.27 309.556C258.465 307.55 257.196 306.402 256.814 305.979C250.539 299.025 213.012 258.082 196.885 241.867C196.222 241.198 189.421 237.821 185.605 235.95C185.187 235.731 184.682 235.796 184.336 236.114C183.997 236.432 183.889 236.93 184.076 237.359C185.519 240.964 188.072 247.119 189.277 248.522Z" fill="#7D46B5"/>
<path fill-rule="evenodd" clip-rule="evenodd" d="M192.688 249.277C192.191 249.532 191.585 249.336 191.332 248.839C191.073 248.344 191.275 247.735 191.765 247.481C193.265 246.713 194.989 245.654 195.905 243.833C196.15 243.334 196.756 243.133 197.261 243.383C197.759 243.633 197.954 244.24 197.708 244.739C196.583 246.974 194.528 248.335 192.688 249.277Z" fill="#BB92E5"/>
<path fill-rule="evenodd" clip-rule="evenodd" d="M241.451 130.041C241.4 129.705 239.792 116.189 239.929 116.618C245.786 134.894 263.189 141.004 283.694 197.323C297.527 235.343 292.046 258.737 278.371 275.581C270.351 285.459 220.621 325.913 206.954 301.105C197.585 284.116 202.266 275.117 207.062 268.492L213.243 275.179C213.243 275.179 246.485 238.326 250.69 214.939C251.368 211.138 244.509 152.019 241.451 130.041Z" fill="#6B85D9"/>
<path fill-rule="evenodd" clip-rule="evenodd" d="M246.319 170.566C246.103 169.799 246.55 169.003 247.322 168.788C248.086 168.574 248.879 169.022 249.096 169.789C256.69 196.923 255.955 206.241 247.934 225.04C247.624 225.772 246.773 226.114 246.045 225.801C245.309 225.489 244.97 224.641 245.28 223.908C253.026 205.759 253.647 196.762 246.319 170.566Z" fill="#3F5AB2"/>
<path fill-rule="evenodd" clip-rule="evenodd" d="M238.43 122.883C238.35 122.09 238.927 121.383 239.721 121.303C240.514 121.224 241.221 121.803 241.3 122.595C241.661 126.189 242.678 130.688 243.493 136.88C243.601 137.669 243.038 138.394 242.252 138.498C241.459 138.601 240.738 138.045 240.637 137.256C239.814 131.026 238.79 126.499 238.43 122.883Z" fill="#3F5AB2"/>
</svg>
